<?xml version="1.0" encoding="UTF-8" standalone="no"?>
<!DOCTYPE svg PUBLIC "-//W3C//DTD SVG 1.1//EN" "http://www.w3.org/Graphics/SVG/1.1/DTD/svg11.dtd">
<svg width="100%" height="100%" viewBox="0 0 348 100" version="1.1" xmlns="http://www.w3.org/2000/svg" xmlns:xlink="http://www.w3.org/1999/xlink" xml:space="preserve" xmlns:serif="http://www.serif.com/" style="fill-rule:evenodd;clip-rule:evenodd;stroke-linejoin:round;stroke-miterlimit:1.41421;">
    <g id="Pink-Button-Rounded-Outline" transform="matrix(2.2305,0,0,2.22202,-2386.64,-488.845)">
        <path d="M1226,265L1070,265L1070,220L1226,220L1226,265ZM1070.9,220.9L1070.9,264.1L1225.1,264.1L1225.1,220.9L1070.9,220.9Z" style="fill:rgb(230,64,133);"/>
    </g>
</svg>
