%YAML 1.1
%TAG !u! tag:unity3d.com,2011:
--- !u!114 &4799132935857499135
MonoBehaviour:
  m_ObjectHideFlags: 0
  m_CorrespondingSourceObject: {fileID: 0}
  m_PrefabInstance: {fileID: 0}
  m_PrefabAsset: {fileID: 0}
  m_GameObject: {fileID: 5784728131577056324}
  m_Enabled: 1
  m_EditorHideFlags: 0
  m_Script: {fileID: 11500000, guid: 306cc8c2b49d7114eaa3623786fc2126, type: 3}
  m_Name: 
  m_EditorClassIdentifier: 
  m_IgnoreLayout: 0
  m_MinWidth: 1164.8
  m_MinHeight: 482.4
  m_PreferredWidth: -1
  m_PreferredHeight: -1
  m_FlexibleWidth: -1
  m_FlexibleHeight: -1
  m_LayoutPriority: 1
--- !u!1 &8688838197484028160
GameObject:
  m_ObjectHideFlags: 0
  m_CorrespondingSourceObject: {fileID: 0}
  m_PrefabInstance: {fileID: 0}
  m_PrefabAsset: {fileID: 0}
  serializedVersion: 6
  m_Component:
  - component: {fileID: 8688838197484028161}
  - component: {fileID: 8688838197484028167}
  - component: {fileID: 1766331104139995587}
  m_Layer: 5
  m_Name: TextField_View
  m_TagString: Untagged
  m_Icon: {fileID: 0}
  m_NavMeshLayer: 0
  m_StaticEditorFlags: 0
  m_IsActive: 1
--- !u!224 &8688838197484028161
RectTransform:
  m_ObjectHideFlags: 0
  m_CorrespondingSourceObject: {fileID: 0}
  m_PrefabInstance: {fileID: 0}
  m_PrefabAsset: {fileID: 0}
  m_GameObject: {fileID: 8688838197484028160}
  m_LocalRotation: {x: 0, y: 0, z: 0, w: 1}
  m_LocalPosition: {x: 0, y: 0, z: 0}
  m_LocalScale: {x: 1, y: 1, z: 1}
  m_Children:
  - {fileID: 4356644516476682763}
  - {fileID: 4480263741643220272}
  m_Father: {fileID: 0}
  m_RootOrder: 0
  m_LocalEulerAnglesHint: {x: 0, y: 0, z: 0}
  m_AnchorMin: {x: 0.5, y: 0.5}
  m_AnchorMax: {x: 0.5, y: 0.5}
  m_AnchoredPosition: {x: 0, y: 0}
  m_SizeDelta: {x: 100, y: 100}
  m_Pivot: {x: 0.5, y: 0.5}
--- !u!114 &8688838197484028167
MonoBehaviour:
  m_ObjectHideFlags: 0
  m_CorrespondingSourceObject: {fileID: 0}
  m_PrefabInstance: {fileID: 0}
  m_PrefabAsset: {fileID: 0}
  m_GameObject: {fileID: 8688838197484028160}
  m_Enabled: 1
  m_EditorHideFlags: 0
  m_Script: {fileID: 11500000, guid: 59f8146938fff824cb5fd77236b75775, type: 3}
  m_Name: 
  m_EditorClassIdentifier: 
  m_Padding:
    m_Left: 0
    m_Right: 0
    m_Top: 0
    m_Bottom: 0
  m_ChildAlignment: 0
  m_Spacing: 30
  m_ChildForceExpandWidth: 0
  m_ChildForceExpandHeight: 1
  m_ChildControlWidth: 1
  m_ChildControlHeight: 1
  m_ChildScaleWidth: 0
  m_ChildScaleHeight: 0
--- !u!114 &1766331104139995587
MonoBehaviour:
  m_ObjectHideFlags: 0
  m_CorrespondingSourceObject: {fileID: 0}
  m_PrefabInstance: {fileID: 0}
  m_PrefabAsset: {fileID: 0}
  m_GameObject: {fileID: 8688838197484028160}
  m_Enabled: 1
  m_EditorHideFlags: 0
  m_Script: {fileID: 11500000, guid: bd61270f27f78434391b345b4c1ae42d, type: 3}
  m_Name: 
  m_EditorClassIdentifier: 
  title: {fileID: 3117237458578222463}
  text: {fileID: 1283755965645204675}
--- !u!1001 &704310244888128557
PrefabInstance:
  m_ObjectHideFlags: 0
  serializedVersion: 2
  m_Modification:
    m_TransformParent: {fileID: 8688838197484028161}
    m_Modifications:
    - target: {fileID: 6449521875812196457, guid: fea1b261e25fd2c4db0b74bdba0e6d4a,
        type: 3}
      propertyPath: m_Name
      value: Font Regular
      objectReference: {fileID: 0}
    - target: {fileID: 1735829038803157230, guid: fea1b261e25fd2c4db0b74bdba0e6d4a,
        type: 3}
      propertyPath: m_FontData.m_HorizontalOverflow
      value: 0
      objectReference: {fileID: 0}
    - target: {fileID: 1735829038803157230, guid: fea1b261e25fd2c4db0b74bdba0e6d4a,
        type: 3}
      propertyPath: m_FontData.m_Alignment
      value: 0
      objectReference: {fileID: 0}
    - target: {fileID: 4029365200171649309, guid: fea1b261e25fd2c4db0b74bdba0e6d4a,
        type: 3}
      propertyPath: m_LocalPosition.x
      value: 0
      objectReference: {fileID: 0}
    - target: {fileID: 4029365200171649309, guid: fea1b261e25fd2c4db0b74bdba0e6d4a,
        type: 3}
      propertyPath: m_LocalPosition.y
      value: 0
      objectReference: {fileID: 0}
    - target: {fileID: 4029365200171649309, guid: fea1b261e25fd2c4db0b74bdba0e6d4a,
        type: 3}
      propertyPath: m_LocalPosition.z
      value: 0
      objectReference: {fileID: 0}
    - target: {fileID: 4029365200171649309, guid: fea1b261e25fd2c4db0b74bdba0e6d4a,
        type: 3}
      propertyPath: m_LocalRotation.x
      value: 0
      objectReference: {fileID: 0}
    - target: {fileID: 4029365200171649309, guid: fea1b261e25fd2c4db0b74bdba0e6d4a,
        type: 3}
      propertyPath: m_LocalRotation.y
      value: 0
      objectReference: {fileID: 0}
    - target: {fileID: 4029365200171649309, guid: fea1b261e25fd2c4db0b74bdba0e6d4a,
        type: 3}
      propertyPath: m_LocalRotation.z
      value: 0
      objectReference: {fileID: 0}
    - target: {fileID: 4029365200171649309, guid: fea1b261e25fd2c4db0b74bdba0e6d4a,
        type: 3}
      propertyPath: m_LocalRotation.w
      value: 1
      objectReference: {fileID: 0}
    - target: {fileID: 4029365200171649309, guid: fea1b261e25fd2c4db0b74bdba0e6d4a,
        type: 3}
      propertyPath: m_RootOrder
      value: 1
      objectReference: {fileID: 0}
    - target: {fileID: 4029365200171649309, guid: fea1b261e25fd2c4db0b74bdba0e6d4a,
        type: 3}
      propertyPath: m_LocalEulerAnglesHint.x
      value: 0
      objectReference: {fileID: 0}
    - target: {fileID: 4029365200171649309, guid: fea1b261e25fd2c4db0b74bdba0e6d4a,
        type: 3}
      propertyPath: m_LocalEulerAnglesHint.y
      value: 0
      objectReference: {fileID: 0}
    - target: {fileID: 4029365200171649309, guid: fea1b261e25fd2c4db0b74bdba0e6d4a,
        type: 3}
      propertyPath: m_LocalEulerAnglesHint.z
      value: 0
      objectReference: {fileID: 0}
    - target: {fileID: 4029365200171649309, guid: fea1b261e25fd2c4db0b74bdba0e6d4a,
        type: 3}
      propertyPath: m_AnchoredPosition.x
      value: 0
      objectReference: {fileID: 0}
    - target: {fileID: 4029365200171649309, guid: fea1b261e25fd2c4db0b74bdba0e6d4a,
        type: 3}
      propertyPath: m_AnchoredPosition.y
      value: 0
      objectReference: {fileID: 0}
    - target: {fileID: 4029365200171649309, guid: fea1b261e25fd2c4db0b74bdba0e6d4a,
        type: 3}
      propertyPath: m_SizeDelta.x
      value: 0
      objectReference: {fileID: 0}
    - target: {fileID: 4029365200171649309, guid: fea1b261e25fd2c4db0b74bdba0e6d4a,
        type: 3}
      propertyPath: m_SizeDelta.y
      value: 0
      objectReference: {fileID: 0}
    - target: {fileID: 4029365200171649309, guid: fea1b261e25fd2c4db0b74bdba0e6d4a,
        type: 3}
      propertyPath: m_AnchorMin.x
      value: 0
      objectReference: {fileID: 0}
    - target: {fileID: 4029365200171649309, guid: fea1b261e25fd2c4db0b74bdba0e6d4a,
        type: 3}
      propertyPath: m_AnchorMin.y
      value: 0
      objectReference: {fileID: 0}
    - target: {fileID: 4029365200171649309, guid: fea1b261e25fd2c4db0b74bdba0e6d4a,
        type: 3}
      propertyPath: m_AnchorMax.x
      value: 0
      objectReference: {fileID: 0}
    - target: {fileID: 4029365200171649309, guid: fea1b261e25fd2c4db0b74bdba0e6d4a,
        type: 3}
      propertyPath: m_AnchorMax.y
      value: 0
      objectReference: {fileID: 0}
    - target: {fileID: 4029365200171649309, guid: fea1b261e25fd2c4db0b74bdba0e6d4a,
        type: 3}
      propertyPath: m_Pivot.x
      value: 0.5
      objectReference: {fileID: 0}
    - target: {fileID: 4029365200171649309, guid: fea1b261e25fd2c4db0b74bdba0e6d4a,
        type: 3}
      propertyPath: m_Pivot.y
      value: 0.5
      objectReference: {fileID: 0}
    m_RemovedComponents: []
  m_SourcePrefab: {fileID: 100100000, guid: fea1b261e25fd2c4db0b74bdba0e6d4a, type: 3}
--- !u!1 &5784728131577056324 stripped
GameObject:
  m_CorrespondingSourceObject: {fileID: 6449521875812196457, guid: fea1b261e25fd2c4db0b74bdba0e6d4a,
    type: 3}
  m_PrefabInstance: {fileID: 704310244888128557}
  m_PrefabAsset: {fileID: 0}
--- !u!224 &4480263741643220272 stripped
RectTransform:
  m_CorrespondingSourceObject: {fileID: 4029365200171649309, guid: fea1b261e25fd2c4db0b74bdba0e6d4a,
    type: 3}
  m_PrefabInstance: {fileID: 704310244888128557}
  m_PrefabAsset: {fileID: 0}
--- !u!114 &1283755965645204675 stripped
MonoBehaviour:
  m_CorrespondingSourceObject: {fileID: 1735829038803157230, guid: fea1b261e25fd2c4db0b74bdba0e6d4a,
    type: 3}
  m_PrefabInstance: {fileID: 704310244888128557}
  m_PrefabAsset: {fileID: 0}
  m_GameObject: {fileID: 5784728131577056324}
  m_Enabled: 1
  m_EditorHideFlags: 0
  m_Script: {fileID: 11500000, guid: 5f7201a12d95ffc409449d95f23cf332, type: 3}
  m_Name: 
  m_EditorClassIdentifier: 
--- !u!1001 &9052970677967617389
PrefabInstance:
  m_ObjectHideFlags: 0
  serializedVersion: 2
  m_Modification:
    m_TransformParent: {fileID: 8688838197484028161}
    m_Modifications:
    - target: {fileID: 4744390230544908129, guid: 4b63be7d229719446b665ab3b59da59e,
        type: 3}
      propertyPath: m_Name
      value: Field Header
      objectReference: {fileID: 0}
    - target: {fileID: 4744390230544908134, guid: 4b63be7d229719446b665ab3b59da59e,
        type: 3}
      propertyPath: m_LocalPosition.x
      value: 0
      objectReference: {fileID: 0}
    - target: {fileID: 4744390230544908134, guid: 4b63be7d229719446b665ab3b59da59e,
        type: 3}
      propertyPath: m_LocalPosition.y
      value: 0
      objectReference: {fileID: 0}
    - target: {fileID: 4744390230544908134, guid: 4b63be7d229719446b665ab3b59da59e,
        type: 3}
      propertyPath: m_LocalPosition.z
      value: 0
      objectReference: {fileID: 0}
    - target: {fileID: 4744390230544908134, guid: 4b63be7d229719446b665ab3b59da59e,
        type: 3}
      propertyPath: m_LocalRotation.x
      value: 0
      objectReference: {fileID: 0}
    - target: {fileID: 4744390230544908134, guid: 4b63be7d229719446b665ab3b59da59e,
        type: 3}
      propertyPath: m_LocalRotation.y
      value: 0
      objectReference: {fileID: 0}
    - target: {fileID: 4744390230544908134, guid: 4b63be7d229719446b665ab3b59da59e,
        type: 3}
      propertyPath: m_LocalRotation.z
      value: 0
      objectReference: {fileID: 0}
    - target: {fileID: 4744390230544908134, guid: 4b63be7d229719446b665ab3b59da59e,
        type: 3}
      propertyPath: m_LocalRotation.w
      value: 1
      objectReference: {fileID: 0}
    - target: {fileID: 4744390230544908134, guid: 4b63be7d229719446b665ab3b59da59e,
        type: 3}
      propertyPath: m_RootOrder
      value: 0
      objectReference: {fileID: 0}
    - target: {fileID: 4744390230544908134, guid: 4b63be7d229719446b665ab3b59da59e,
        type: 3}
      propertyPath: m_LocalEulerAnglesHint.x
      value: 0
      objectReference: {fileID: 0}
    - target: {fileID: 4744390230544908134, guid: 4b63be7d229719446b665ab3b59da59e,
        type: 3}
      propertyPath: m_LocalEulerAnglesHint.y
      value: 0
      objectReference: {fileID: 0}
    - target: {fileID: 4744390230544908134, guid: 4b63be7d229719446b665ab3b59da59e,
        type: 3}
      propertyPath: m_LocalEulerAnglesHint.z
      value: 0
      objectReference: {fileID: 0}
    - target: {fileID: 4744390230544908134, guid: 4b63be7d229719446b665ab3b59da59e,
        type: 3}
      propertyPath: m_AnchoredPosition.x
      value: 0
      objectReference: {fileID: 0}
    - target: {fileID: 4744390230544908134, guid: 4b63be7d229719446b665ab3b59da59e,
        type: 3}
      propertyPath: m_AnchoredPosition.y
      value: 0
      objectReference: {fileID: 0}
    - target: {fileID: 4744390230544908134, guid: 4b63be7d229719446b665ab3b59da59e,
        type: 3}
      propertyPath: m_SizeDelta.x
      value: 0
      objectReference: {fileID: 0}
    - target: {fileID: 4744390230544908134, guid: 4b63be7d229719446b665ab3b59da59e,
        type: 3}
      propertyPath: m_SizeDelta.y
      value: 0
      objectReference: {fileID: 0}
    - target: {fileID: 4744390230544908134, guid: 4b63be7d229719446b665ab3b59da59e,
        type: 3}
      propertyPath: m_AnchorMin.x
      value: 0
      objectReference: {fileID: 0}
    - target: {fileID: 4744390230544908134, guid: 4b63be7d229719446b665ab3b59da59e,
        type: 3}
      propertyPath: m_AnchorMin.y
      value: 0
      objectReference: {fileID: 0}
    - target: {fileID: 4744390230544908134, guid: 4b63be7d229719446b665ab3b59da59e,
        type: 3}
      propertyPath: m_AnchorMax.x
      value: 0
      objectReference: {fileID: 0}
    - target: {fileID: 4744390230544908134, guid: 4b63be7d229719446b665ab3b59da59e,
        type: 3}
      propertyPath: m_AnchorMax.y
      value: 0
      objectReference: {fileID: 0}
    - target: {fileID: 4744390230544908134, guid: 4b63be7d229719446b665ab3b59da59e,
        type: 3}
      propertyPath: m_Pivot.x
      value: 0.5
      objectReference: {fileID: 0}
    - target: {fileID: 4744390230544908134, guid: 4b63be7d229719446b665ab3b59da59e,
        type: 3}
      propertyPath: m_Pivot.y
      value: 0.5
      objectReference: {fileID: 0}
    - target: {fileID: 3352859581996679592, guid: 4b63be7d229719446b665ab3b59da59e,
        type: 3}
      propertyPath: m_textInfo.characterCount
      value: 12
      objectReference: {fileID: 0}
    - target: {fileID: 3352859581996679592, guid: 4b63be7d229719446b665ab3b59da59e,
        type: 3}
      propertyPath: m_textInfo.spaceCount
      value: 1
      objectReference: {fileID: 0}
    - target: {fileID: 3352859581996679592, guid: 4b63be7d229719446b665ab3b59da59e,
        type: 3}
      propertyPath: m_textInfo.wordCount
      value: 2
      objectReference: {fileID: 0}
    - target: {fileID: 3352859581996679592, guid: 4b63be7d229719446b665ab3b59da59e,
        type: 3}
      propertyPath: m_textInfo.lineCount
      value: 1
      objectReference: {fileID: 0}
    - target: {fileID: 3352859581996679592, guid: 4b63be7d229719446b665ab3b59da59e,
        type: 3}
      propertyPath: m_textInfo.pageCount
      value: 1
      objectReference: {fileID: 0}
    - target: {fileID: 3352859581996679592, guid: 4b63be7d229719446b665ab3b59da59e,
        type: 3}
      propertyPath: m_fontSize
      value: 24.45
      objectReference: {fileID: 0}
    - target: {fileID: 3352859581996679592, guid: 4b63be7d229719446b665ab3b59da59e,
        type: 3}
      propertyPath: m_firstOverflowCharacterIndex
      value: -1
      objectReference: {fileID: 0}
    m_RemovedComponents: []
  m_SourcePrefab: {fileID: 100100000, guid: 4b63be7d229719446b665ab3b59da59e, type: 3}
--- !u!224 &4356644516476682763 stripped
RectTransform:
  m_CorrespondingSourceObject: {fileID: 4744390230544908134, guid: 4b63be7d229719446b665ab3b59da59e,
    type: 3}
  m_PrefabInstance: {fileID: 9052970677967617389}
  m_PrefabAsset: {fileID: 0}
--- !u!114 &3117237458578222463 stripped
MonoBehaviour:
  m_CorrespondingSourceObject: {fileID: 6260067451444252690, guid: 4b63be7d229719446b665ab3b59da59e,
    type: 3}
  m_PrefabInstance: {fileID: 9052970677967617389}
  m_PrefabAsset: {fileID: 0}
  m_GameObject: {fileID: 0}
  m_Enabled: 1
  m_EditorHideFlags: 0
  m_Script: {fileID: 11500000, guid: 5f7201a12d95ffc409449d95f23cf332, type: 3}
  m_Name: 
  m_EditorClassIdentifier: 
