%YAML 1.1
%TAG !u! tag:unity3d.com,2011:
--- !u!114 &2799604684565731885
MonoBehaviour:
  m_ObjectHideFlags: 0
  m_CorrespondingSourceObject: {fileID: 0}
  m_PrefabInstance: {fileID: 0}
  m_PrefabAsset: {fileID: 0}
  m_GameObject: {fileID: 3533285517607138821}
  m_Enabled: 1
  m_EditorHideFlags: 0
  m_Script: {fileID: 11500000, guid: 8a8695521f0d02e499659fee002a26c2, type: 3}
  m_Name: 
  m_EditorClassIdentifier: 
  m_Padding:
    m_Left: 18
    m_Right: 0
    m_Top: 7
    m_Bottom: 0
  m_ChildAlignment: 0
  m_StartCorner: 0
  m_StartAxis: 0
  m_CellSize: {x: 100, y: 100}
  m_Spacing: {x: 39.61, y: 0}
  m_Constraint: 0
  m_ConstraintCount: 5
--- !u!1001 &8265311064951634109
PrefabInstance:
  m_ObjectHideFlags: 0
  serializedVersion: 2
  m_Modification:
    m_TransformParent: {fileID: 0}
    m_Modifications:
    - target: {fileID: 3644399027158734877, guid: f658f142bedcfac4086eaf586120aaa7,
        type: 3}
      propertyPath: m_Name
      value: ToggleAssess_Number_Grid
      objectReference: {fileID: 0}
    - target: {fileID: 3958346618778504094, guid: f658f142bedcfac4086eaf586120aaa7,
        type: 3}
      propertyPath: m_LocalPosition.x
      value: 0
      objectReference: {fileID: 0}
    - target: {fileID: 3958346618778504094, guid: f658f142bedcfac4086eaf586120aaa7,
        type: 3}
      propertyPath: m_LocalPosition.y
      value: 0
      objectReference: {fileID: 0}
    - target: {fileID: 3958346618778504094, guid: f658f142bedcfac4086eaf586120aaa7,
        type: 3}
      propertyPath: m_LocalPosition.z
      value: 0
      objectReference: {fileID: 0}
    - target: {fileID: 3958346618778504094, guid: f658f142bedcfac4086eaf586120aaa7,
        type: 3}
      propertyPath: m_LocalRotation.x
      value: 0
      objectReference: {fileID: 0}
    - target: {fileID: 3958346618778504094, guid: f658f142bedcfac4086eaf586120aaa7,
        type: 3}
      propertyPath: m_LocalRotation.y
      value: 0
      objectReference: {fileID: 0}
    - target: {fileID: 3958346618778504094, guid: f658f142bedcfac4086eaf586120aaa7,
        type: 3}
      propertyPath: m_LocalRotation.z
      value: 0
      objectReference: {fileID: 0}
    - target: {fileID: 3958346618778504094, guid: f658f142bedcfac4086eaf586120aaa7,
        type: 3}
      propertyPath: m_LocalRotation.w
      value: 1
      objectReference: {fileID: 0}
    - target: {fileID: 3958346618778504094, guid: f658f142bedcfac4086eaf586120aaa7,
        type: 3}
      propertyPath: m_RootOrder
      value: 0
      objectReference: {fileID: 0}
    - target: {fileID: 3958346618778504094, guid: f658f142bedcfac4086eaf586120aaa7,
        type: 3}
      propertyPath: m_LocalEulerAnglesHint.x
      value: 0
      objectReference: {fileID: 0}
    - target: {fileID: 3958346618778504094, guid: f658f142bedcfac4086eaf586120aaa7,
        type: 3}
      propertyPath: m_LocalEulerAnglesHint.y
      value: 0
      objectReference: {fileID: 0}
    - target: {fileID: 3958346618778504094, guid: f658f142bedcfac4086eaf586120aaa7,
        type: 3}
      propertyPath: m_LocalEulerAnglesHint.z
      value: 0
      objectReference: {fileID: 0}
    - target: {fileID: 3958346618778504094, guid: f658f142bedcfac4086eaf586120aaa7,
        type: 3}
      propertyPath: m_AnchoredPosition.x
      value: 0
      objectReference: {fileID: 0}
    - target: {fileID: 3958346618778504094, guid: f658f142bedcfac4086eaf586120aaa7,
        type: 3}
      propertyPath: m_AnchoredPosition.y
      value: 0
      objectReference: {fileID: 0}
    - target: {fileID: 3958346618778504094, guid: f658f142bedcfac4086eaf586120aaa7,
        type: 3}
      propertyPath: m_SizeDelta.x
      value: 100
      objectReference: {fileID: 0}
    - target: {fileID: 3958346618778504094, guid: f658f142bedcfac4086eaf586120aaa7,
        type: 3}
      propertyPath: m_SizeDelta.y
      value: 57
      objectReference: {fileID: 0}
    - target: {fileID: 3958346618778504094, guid: f658f142bedcfac4086eaf586120aaa7,
        type: 3}
      propertyPath: m_AnchorMin.x
      value: 0
      objectReference: {fileID: 0}
    - target: {fileID: 3958346618778504094, guid: f658f142bedcfac4086eaf586120aaa7,
        type: 3}
      propertyPath: m_AnchorMin.y
      value: 0
      objectReference: {fileID: 0}
    - target: {fileID: 3958346618778504094, guid: f658f142bedcfac4086eaf586120aaa7,
        type: 3}
      propertyPath: m_AnchorMax.x
      value: 0
      objectReference: {fileID: 0}
    - target: {fileID: 3958346618778504094, guid: f658f142bedcfac4086eaf586120aaa7,
        type: 3}
      propertyPath: m_AnchorMax.y
      value: 0
      objectReference: {fileID: 0}
    - target: {fileID: 3958346618778504094, guid: f658f142bedcfac4086eaf586120aaa7,
        type: 3}
      propertyPath: m_Pivot.x
      value: 0.5
      objectReference: {fileID: 0}
    - target: {fileID: 3958346618778504094, guid: f658f142bedcfac4086eaf586120aaa7,
        type: 3}
      propertyPath: m_Pivot.y
      value: 0.5
      objectReference: {fileID: 0}
    - target: {fileID: 393272221364871538, guid: f658f142bedcfac4086eaf586120aaa7,
        type: 3}
      propertyPath: childrenViewType
      value: 2
      objectReference: {fileID: 0}
    - target: {fileID: 7175771959914170386, guid: f658f142bedcfac4086eaf586120aaa7,
        type: 3}
      propertyPath: m_AnchoredPosition.x
      value: 0
      objectReference: {fileID: 0}
    - target: {fileID: 7175771959914170386, guid: f658f142bedcfac4086eaf586120aaa7,
        type: 3}
      propertyPath: m_SizeDelta.x
      value: 0
      objectReference: {fileID: 0}
    - target: {fileID: 7175771959914170386, guid: f658f142bedcfac4086eaf586120aaa7,
        type: 3}
      propertyPath: m_AnchorMin.y
      value: 0
      objectReference: {fileID: 0}
    - target: {fileID: 7175771959914170386, guid: f658f142bedcfac4086eaf586120aaa7,
        type: 3}
      propertyPath: m_AnchorMax.y
      value: 0
      objectReference: {fileID: 0}
    - target: {fileID: 7175771959914170386, guid: f658f142bedcfac4086eaf586120aaa7,
        type: 3}
      propertyPath: m_AnchoredPosition.y
      value: 0
      objectReference: {fileID: 0}
    - target: {fileID: 7175771959914170386, guid: f658f142bedcfac4086eaf586120aaa7,
        type: 3}
      propertyPath: m_SizeDelta.y
      value: 0
      objectReference: {fileID: 0}
    - target: {fileID: 559285792922883481, guid: f658f142bedcfac4086eaf586120aaa7,
        type: 3}
      propertyPath: m_AnchorMin.y
      value: 0
      objectReference: {fileID: 0}
    - target: {fileID: 559285792922883481, guid: f658f142bedcfac4086eaf586120aaa7,
        type: 3}
      propertyPath: m_AnchorMax.y
      value: 0
      objectReference: {fileID: 0}
    - target: {fileID: 559285792922883481, guid: f658f142bedcfac4086eaf586120aaa7,
        type: 3}
      propertyPath: m_AnchoredPosition.x
      value: 0
      objectReference: {fileID: 0}
    - target: {fileID: 559285792922883481, guid: f658f142bedcfac4086eaf586120aaa7,
        type: 3}
      propertyPath: m_AnchoredPosition.y
      value: 0
      objectReference: {fileID: 0}
    - target: {fileID: 559285792922883481, guid: f658f142bedcfac4086eaf586120aaa7,
        type: 3}
      propertyPath: m_SizeDelta.x
      value: 0
      objectReference: {fileID: 0}
    - target: {fileID: 559285792922883481, guid: f658f142bedcfac4086eaf586120aaa7,
        type: 3}
      propertyPath: m_SizeDelta.y
      value: 0
      objectReference: {fileID: 0}
    - target: {fileID: 1469656534484427601, guid: f658f142bedcfac4086eaf586120aaa7,
        type: 3}
      propertyPath: m_AnchorMin.y
      value: 0
      objectReference: {fileID: 0}
    - target: {fileID: 1469656534484427601, guid: f658f142bedcfac4086eaf586120aaa7,
        type: 3}
      propertyPath: m_AnchorMax.y
      value: 0
      objectReference: {fileID: 0}
    - target: {fileID: 1469656534484427601, guid: f658f142bedcfac4086eaf586120aaa7,
        type: 3}
      propertyPath: m_SizeDelta.x
      value: 0
      objectReference: {fileID: 0}
    - target: {fileID: 1469656534484427601, guid: f658f142bedcfac4086eaf586120aaa7,
        type: 3}
      propertyPath: m_SizeDelta.y
      value: 0
      objectReference: {fileID: 0}
    - target: {fileID: 7440330610103207075, guid: f658f142bedcfac4086eaf586120aaa7,
        type: 3}
      propertyPath: m_AnchorMin.y
      value: 0
      objectReference: {fileID: 0}
    - target: {fileID: 7440330610103207075, guid: f658f142bedcfac4086eaf586120aaa7,
        type: 3}
      propertyPath: m_AnchorMax.y
      value: 0
      objectReference: {fileID: 0}
    - target: {fileID: 7440330610103207075, guid: f658f142bedcfac4086eaf586120aaa7,
        type: 3}
      propertyPath: m_AnchoredPosition.x
      value: 0
      objectReference: {fileID: 0}
    - target: {fileID: 7440330610103207075, guid: f658f142bedcfac4086eaf586120aaa7,
        type: 3}
      propertyPath: m_AnchoredPosition.y
      value: 0
      objectReference: {fileID: 0}
    - target: {fileID: 7440330610103207075, guid: f658f142bedcfac4086eaf586120aaa7,
        type: 3}
      propertyPath: m_SizeDelta.x
      value: 0
      objectReference: {fileID: 0}
    - target: {fileID: 7440330610103207075, guid: f658f142bedcfac4086eaf586120aaa7,
        type: 3}
      propertyPath: m_SizeDelta.y
      value: 0
      objectReference: {fileID: 0}
    - target: {fileID: 8417301764541458547, guid: f658f142bedcfac4086eaf586120aaa7,
        type: 3}
      propertyPath: m_AnchorMin.y
      value: 0
      objectReference: {fileID: 0}
    - target: {fileID: 8417301764541458547, guid: f658f142bedcfac4086eaf586120aaa7,
        type: 3}
      propertyPath: m_AnchorMax.y
      value: 0
      objectReference: {fileID: 0}
    - target: {fileID: 8417301764541458547, guid: f658f142bedcfac4086eaf586120aaa7,
        type: 3}
      propertyPath: m_AnchoredPosition.x
      value: 0
      objectReference: {fileID: 0}
    - target: {fileID: 8417301764541458547, guid: f658f142bedcfac4086eaf586120aaa7,
        type: 3}
      propertyPath: m_AnchoredPosition.y
      value: 0
      objectReference: {fileID: 0}
    - target: {fileID: 8417301764541458547, guid: f658f142bedcfac4086eaf586120aaa7,
        type: 3}
      propertyPath: m_SizeDelta.x
      value: 0
      objectReference: {fileID: 0}
    - target: {fileID: 8417301764541458547, guid: f658f142bedcfac4086eaf586120aaa7,
        type: 3}
      propertyPath: m_SizeDelta.y
      value: 0
      objectReference: {fileID: 0}
    - target: {fileID: 5410589936717180816, guid: f658f142bedcfac4086eaf586120aaa7,
        type: 3}
      propertyPath: m_AnchorMin.y
      value: 0
      objectReference: {fileID: 0}
    - target: {fileID: 5410589936717180816, guid: f658f142bedcfac4086eaf586120aaa7,
        type: 3}
      propertyPath: m_AnchorMax.y
      value: 0
      objectReference: {fileID: 0}
    - target: {fileID: 5410589936717180816, guid: f658f142bedcfac4086eaf586120aaa7,
        type: 3}
      propertyPath: m_AnchoredPosition.x
      value: 0
      objectReference: {fileID: 0}
    - target: {fileID: 5410589936717180816, guid: f658f142bedcfac4086eaf586120aaa7,
        type: 3}
      propertyPath: m_AnchoredPosition.y
      value: 0
      objectReference: {fileID: 0}
    - target: {fileID: 5410589936717180816, guid: f658f142bedcfac4086eaf586120aaa7,
        type: 3}
      propertyPath: m_SizeDelta.x
      value: 0
      objectReference: {fileID: 0}
    - target: {fileID: 5410589936717180816, guid: f658f142bedcfac4086eaf586120aaa7,
        type: 3}
      propertyPath: m_SizeDelta.y
      value: 0
      objectReference: {fileID: 0}
    - target: {fileID: 9053537624911959214, guid: f658f142bedcfac4086eaf586120aaa7,
        type: 3}
      propertyPath: m_AnchorMin.y
      value: 0
      objectReference: {fileID: 0}
    - target: {fileID: 9053537624911959214, guid: f658f142bedcfac4086eaf586120aaa7,
        type: 3}
      propertyPath: m_AnchorMax.y
      value: 0
      objectReference: {fileID: 0}
    - target: {fileID: 9053537624911959214, guid: f658f142bedcfac4086eaf586120aaa7,
        type: 3}
      propertyPath: m_AnchoredPosition.y
      value: 0
      objectReference: {fileID: 0}
    - target: {fileID: 9053537624911959214, guid: f658f142bedcfac4086eaf586120aaa7,
        type: 3}
      propertyPath: m_SizeDelta.y
      value: 0
      objectReference: {fileID: 0}
    m_RemovedComponents: []
  m_SourcePrefab: {fileID: 100100000, guid: f658f142bedcfac4086eaf586120aaa7, type: 3}
--- !u!1 &3533285517607138821 stripped
GameObject:
  m_CorrespondingSourceObject: {fileID: 4880926634893201080, guid: f658f142bedcfac4086eaf586120aaa7,
    type: 3}
  m_PrefabInstance: {fileID: 8265311064951634109}
  m_PrefabAsset: {fileID: 0}
