%YAML 1.1
%TAG !u! tag:unity3d.com,2011:
--- !u!1001 &8406468993573642684
PrefabInstance:
  m_ObjectHideFlags: 0
  serializedVersion: 2
  m_Modification:
    m_TransformParent: {fileID: 0}
    m_Modifications:
    - target: {fileID: 375298705981792218, guid: 9abf8c7ca9c285e4bb95c6e00642c29f,
        type: 3}
      propertyPath: active.r
      value: 1
      objectReference: {fileID: 0}
    - target: {fileID: 375298705981792218, guid: 9abf8c7ca9c285e4bb95c6e00642c29f,
        type: 3}
      propertyPath: active.g
      value: 1
      objectReference: {fileID: 0}
    - target: {fileID: 375298705981792218, guid: 9abf8c7ca9c285e4bb95c6e00642c29f,
        type: 3}
      propertyPath: active.b
      value: 1
      objectReference: {fileID: 0}
    - target: {fileID: 375298705981792218, guid: 9abf8c7ca9c285e4bb95c6e00642c29f,
        type: 3}
      propertyPath: inactive.a
      value: 1
      objectReference: {fileID: 0}
    - target: {fileID: 375298705981792218, guid: 9abf8c7ca9c285e4bb95c6e00642c29f,
        type: 3}
      propertyPath: inactive.r
      value: 0.49924305
      objectReference: {fileID: 0}
    - target: {fileID: 375298705981792218, guid: 9abf8c7ca9c285e4bb95c6e00642c29f,
        type: 3}
      propertyPath: inactive.g
      value: 0.525821
      objectReference: {fileID: 0}
    - target: {fileID: 375298705981792218, guid: 9abf8c7ca9c285e4bb95c6e00642c29f,
        type: 3}
      propertyPath: inactive.b
      value: 0.5955882
      objectReference: {fileID: 0}
    - target: {fileID: 1783927728955598871, guid: 9abf8c7ca9c285e4bb95c6e00642c29f,
        type: 3}
      propertyPath: m_IsActive
      value: 0
      objectReference: {fileID: 0}
    - target: {fileID: 4315834706240862378, guid: 9abf8c7ca9c285e4bb95c6e00642c29f,
        type: 3}
      propertyPath: m_AnchorMin.y
      value: 1
      objectReference: {fileID: 0}
    - target: {fileID: 4315834706240862378, guid: 9abf8c7ca9c285e4bb95c6e00642c29f,
        type: 3}
      propertyPath: m_AnchorMax.y
      value: 1
      objectReference: {fileID: 0}
    - target: {fileID: 4315834706240862378, guid: 9abf8c7ca9c285e4bb95c6e00642c29f,
        type: 3}
      propertyPath: m_AnchoredPosition.x
      value: 74
      objectReference: {fileID: 0}
    - target: {fileID: 4315834706240862378, guid: 9abf8c7ca9c285e4bb95c6e00642c29f,
        type: 3}
      propertyPath: m_SizeDelta.x
      value: 140
      objectReference: {fileID: 0}
    - target: {fileID: 4315834706240862378, guid: 9abf8c7ca9c285e4bb95c6e00642c29f,
        type: 3}
      propertyPath: m_AnchoredPosition.y
      value: -35
      objectReference: {fileID: 0}
    - target: {fileID: 4315834706240862378, guid: 9abf8c7ca9c285e4bb95c6e00642c29f,
        type: 3}
      propertyPath: m_SizeDelta.y
      value: 39
      objectReference: {fileID: 0}
    - target: {fileID: 4446683581522709167, guid: 9abf8c7ca9c285e4bb95c6e00642c29f,
        type: 3}
      propertyPath: m_Text
      value: Next Panel
      objectReference: {fileID: 0}
    - target: {fileID: 6252918259720429240, guid: 9abf8c7ca9c285e4bb95c6e00642c29f,
        type: 3}
      propertyPath: m_Sprite
      value: 
      objectReference: {fileID: 21300000, guid: a3b65f7475ba947f581eb759758912d4,
        type: 3}
    - target: {fileID: 6252918259720429242, guid: 9abf8c7ca9c285e4bb95c6e00642c29f,
        type: 3}
      propertyPath: m_AnchoredPosition.x
      value: 100
      objectReference: {fileID: 0}
    - target: {fileID: 6252918259720429242, guid: 9abf8c7ca9c285e4bb95c6e00642c29f,
        type: 3}
      propertyPath: m_AnchorMin.y
      value: 0
      objectReference: {fileID: 0}
    - target: {fileID: 6252918259720429242, guid: 9abf8c7ca9c285e4bb95c6e00642c29f,
        type: 3}
      propertyPath: m_AnchorMax.y
      value: 0
      objectReference: {fileID: 0}
    - target: {fileID: 6252918259720429242, guid: 9abf8c7ca9c285e4bb95c6e00642c29f,
        type: 3}
      propertyPath: m_AnchoredPosition.y
      value: 0
      objectReference: {fileID: 0}
    - target: {fileID: 6252918259720429242, guid: 9abf8c7ca9c285e4bb95c6e00642c29f,
        type: 3}
      propertyPath: m_SizeDelta.x
      value: 0
      objectReference: {fileID: 0}
    - target: {fileID: 6252918259720429242, guid: 9abf8c7ca9c285e4bb95c6e00642c29f,
        type: 3}
      propertyPath: m_SizeDelta.y
      value: 0
      objectReference: {fileID: 0}
    - target: {fileID: 6252918260978693129, guid: 9abf8c7ca9c285e4bb95c6e00642c29f,
        type: 3}
      propertyPath: m_Padding.m_Top
      value: 10
      objectReference: {fileID: 0}
    - target: {fileID: 6252918260978693129, guid: 9abf8c7ca9c285e4bb95c6e00642c29f,
        type: 3}
      propertyPath: m_Padding.m_Bottom
      value: 10
      objectReference: {fileID: 0}
    - target: {fileID: 6252918260978693131, guid: 9abf8c7ca9c285e4bb95c6e00642c29f,
        type: 3}
      propertyPath: m_Color.a
      value: 0
      objectReference: {fileID: 0}
    - target: {fileID: 6252918260978693134, guid: 9abf8c7ca9c285e4bb95c6e00642c29f,
        type: 3}
      propertyPath: m_Delegates.Array.data[0].callback.m_PersistentCalls.m_Calls.Array.data[0].m_Arguments.m_BoolArgument
      value: 0
      objectReference: {fileID: 0}
    - target: {fileID: 6252918260978693135, guid: 9abf8c7ca9c285e4bb95c6e00642c29f,
        type: 3}
      propertyPath: m_LocalPosition.x
      value: 0
      objectReference: {fileID: 0}
    - target: {fileID: 6252918260978693135, guid: 9abf8c7ca9c285e4bb95c6e00642c29f,
        type: 3}
      propertyPath: m_LocalPosition.y
      value: 0
      objectReference: {fileID: 0}
    - target: {fileID: 6252918260978693135, guid: 9abf8c7ca9c285e4bb95c6e00642c29f,
        type: 3}
      propertyPath: m_LocalPosition.z
      value: 0
      objectReference: {fileID: 0}
    - target: {fileID: 6252918260978693135, guid: 9abf8c7ca9c285e4bb95c6e00642c29f,
        type: 3}
      propertyPath: m_LocalRotation.x
      value: 0
      objectReference: {fileID: 0}
    - target: {fileID: 6252918260978693135, guid: 9abf8c7ca9c285e4bb95c6e00642c29f,
        type: 3}
      propertyPath: m_LocalRotation.y
      value: 0
      objectReference: {fileID: 0}
    - target: {fileID: 6252918260978693135, guid: 9abf8c7ca9c285e4bb95c6e00642c29f,
        type: 3}
      propertyPath: m_LocalRotation.z
      value: 0
      objectReference: {fileID: 0}
    - target: {fileID: 6252918260978693135, guid: 9abf8c7ca9c285e4bb95c6e00642c29f,
        type: 3}
      propertyPath: m_LocalRotation.w
      value: 1
      objectReference: {fileID: 0}
    - target: {fileID: 6252918260978693135, guid: 9abf8c7ca9c285e4bb95c6e00642c29f,
        type: 3}
      propertyPath: m_RootOrder
      value: 0
      objectReference: {fileID: 0}
    - target: {fileID: 6252918260978693135, guid: 9abf8c7ca9c285e4bb95c6e00642c29f,
        type: 3}
      propertyPath: m_LocalEulerAnglesHint.x
      value: 0
      objectReference: {fileID: 0}
    - target: {fileID: 6252918260978693135, guid: 9abf8c7ca9c285e4bb95c6e00642c29f,
        type: 3}
      propertyPath: m_LocalEulerAnglesHint.y
      value: 0
      objectReference: {fileID: 0}
    - target: {fileID: 6252918260978693135, guid: 9abf8c7ca9c285e4bb95c6e00642c29f,
        type: 3}
      propertyPath: m_LocalEulerAnglesHint.z
      value: 0
      objectReference: {fileID: 0}
    - target: {fileID: 6252918260978693135, guid: 9abf8c7ca9c285e4bb95c6e00642c29f,
        type: 3}
      propertyPath: m_AnchoredPosition.x
      value: 481.24994
      objectReference: {fileID: 0}
    - target: {fileID: 6252918260978693135, guid: 9abf8c7ca9c285e4bb95c6e00642c29f,
        type: 3}
      propertyPath: m_AnchoredPosition.y
      value: 0
      objectReference: {fileID: 0}
    - target: {fileID: 6252918260978693135, guid: 9abf8c7ca9c285e4bb95c6e00642c29f,
        type: 3}
      propertyPath: m_SizeDelta.x
      value: 0
      objectReference: {fileID: 0}
    - target: {fileID: 6252918260978693135, guid: 9abf8c7ca9c285e4bb95c6e00642c29f,
        type: 3}
      propertyPath: m_SizeDelta.y
      value: 0
      objectReference: {fileID: 0}
    - target: {fileID: 6252918260978693135, guid: 9abf8c7ca9c285e4bb95c6e00642c29f,
        type: 3}
      propertyPath: m_AnchorMin.x
      value: 0
      objectReference: {fileID: 0}
    - target: {fileID: 6252918260978693135, guid: 9abf8c7ca9c285e4bb95c6e00642c29f,
        type: 3}
      propertyPath: m_AnchorMin.y
      value: 0
      objectReference: {fileID: 0}
    - target: {fileID: 6252918260978693135, guid: 9abf8c7ca9c285e4bb95c6e00642c29f,
        type: 3}
      propertyPath: m_AnchorMax.x
      value: 0
      objectReference: {fileID: 0}
    - target: {fileID: 6252918260978693135, guid: 9abf8c7ca9c285e4bb95c6e00642c29f,
        type: 3}
      propertyPath: m_AnchorMax.y
      value: 0
      objectReference: {fileID: 0}
    - target: {fileID: 6252918260978693135, guid: 9abf8c7ca9c285e4bb95c6e00642c29f,
        type: 3}
      propertyPath: m_Pivot.x
      value: 0.5
      objectReference: {fileID: 0}
    - target: {fileID: 6252918260978693135, guid: 9abf8c7ca9c285e4bb95c6e00642c29f,
        type: 3}
      propertyPath: m_Pivot.y
      value: 0.5
      objectReference: {fileID: 0}
    - target: {fileID: 6252918260978693136, guid: 9abf8c7ca9c285e4bb95c6e00642c29f,
        type: 3}
      propertyPath: m_Name
      value: Next Panel Variant
      objectReference: {fileID: 0}
    m_RemovedComponents: []
  m_SourcePrefab: {fileID: 100100000, guid: 9abf8c7ca9c285e4bb95c6e00642c29f, type: 3}
