%YAML 1.1
%TAG !u! tag:unity3d.com,2011:
--- !u!114 &6499191261537907086
MonoBehaviour:
  m_ObjectHideFlags: 0
  m_CorrespondingSourceObject: {fileID: 0}
  m_PrefabInstance: {fileID: 0}
  m_PrefabAsset: {fileID: 0}
  m_GameObject: {fileID: 5465420280609839317}
  m_Enabled: 1
  m_EditorHideFlags: 0
  m_Script: {fileID: 11500000, guid: 59f8146938fff824cb5fd77236b75775, type: 3}
  m_Name: 
  m_EditorClassIdentifier: 
  m_Padding:
    m_Left: 30
    m_Right: 0
    m_Top: 0
    m_Bottom: 0
  m_ChildAlignment: 0
  m_Spacing: 20
  m_ChildForceExpandWidth: 0
  m_ChildForceExpandHeight: 1
  m_ChildControlWidth: 1
  m_ChildControlHeight: 1
  m_ChildScaleWidth: 0
  m_ChildScaleHeight: 0
--- !u!1001 &2795574317917134488
PrefabInstance:
  m_ObjectHideFlags: 0
  serializedVersion: 2
  m_Modification:
    m_TransformParent: {fileID: 0}
    m_Modifications:
    - target: {fileID: 7859611266836187917, guid: 9fc01e6854497084fa2288ca89bc8361,
        type: 3}
      propertyPath: m_Name
      value: Toggles_Vertical_View(title not inline)(Horizontal Children) Variant
      objectReference: {fileID: 0}
    - target: {fileID: 7859611266836187916, guid: 9fc01e6854497084fa2288ca89bc8361,
        type: 3}
      propertyPath: m_LocalPosition.x
      value: 0
      objectReference: {fileID: 0}
    - target: {fileID: 7859611266836187916, guid: 9fc01e6854497084fa2288ca89bc8361,
        type: 3}
      propertyPath: m_LocalPosition.y
      value: 0
      objectReference: {fileID: 0}
    - target: {fileID: 7859611266836187916, guid: 9fc01e6854497084fa2288ca89bc8361,
        type: 3}
      propertyPath: m_LocalPosition.z
      value: 0
      objectReference: {fileID: 0}
    - target: {fileID: 7859611266836187916, guid: 9fc01e6854497084fa2288ca89bc8361,
        type: 3}
      propertyPath: m_LocalRotation.x
      value: 0
      objectReference: {fileID: 0}
    - target: {fileID: 7859611266836187916, guid: 9fc01e6854497084fa2288ca89bc8361,
        type: 3}
      propertyPath: m_LocalRotation.y
      value: 0
      objectReference: {fileID: 0}
    - target: {fileID: 7859611266836187916, guid: 9fc01e6854497084fa2288ca89bc8361,
        type: 3}
      propertyPath: m_LocalRotation.z
      value: 0
      objectReference: {fileID: 0}
    - target: {fileID: 7859611266836187916, guid: 9fc01e6854497084fa2288ca89bc8361,
        type: 3}
      propertyPath: m_LocalRotation.w
      value: 1
      objectReference: {fileID: 0}
    - target: {fileID: 7859611266836187916, guid: 9fc01e6854497084fa2288ca89bc8361,
        type: 3}
      propertyPath: m_RootOrder
      value: 0
      objectReference: {fileID: 0}
    - target: {fileID: 7859611266836187916, guid: 9fc01e6854497084fa2288ca89bc8361,
        type: 3}
      propertyPath: m_LocalEulerAnglesHint.x
      value: 0
      objectReference: {fileID: 0}
    - target: {fileID: 7859611266836187916, guid: 9fc01e6854497084fa2288ca89bc8361,
        type: 3}
      propertyPath: m_LocalEulerAnglesHint.y
      value: 0
      objectReference: {fileID: 0}
    - target: {fileID: 7859611266836187916, guid: 9fc01e6854497084fa2288ca89bc8361,
        type: 3}
      propertyPath: m_LocalEulerAnglesHint.z
      value: 0
      objectReference: {fileID: 0}
    - target: {fileID: 7859611266836187916, guid: 9fc01e6854497084fa2288ca89bc8361,
        type: 3}
      propertyPath: m_AnchoredPosition.x
      value: 0
      objectReference: {fileID: 0}
    - target: {fileID: 7859611266836187916, guid: 9fc01e6854497084fa2288ca89bc8361,
        type: 3}
      propertyPath: m_AnchoredPosition.y
      value: 0
      objectReference: {fileID: 0}
    - target: {fileID: 7859611266836187916, guid: 9fc01e6854497084fa2288ca89bc8361,
        type: 3}
      propertyPath: m_SizeDelta.x
      value: 100
      objectReference: {fileID: 0}
    - target: {fileID: 7859611266836187916, guid: 9fc01e6854497084fa2288ca89bc8361,
        type: 3}
      propertyPath: m_SizeDelta.y
      value: 100
      objectReference: {fileID: 0}
    - target: {fileID: 7859611266836187916, guid: 9fc01e6854497084fa2288ca89bc8361,
        type: 3}
      propertyPath: m_AnchorMin.x
      value: 0
      objectReference: {fileID: 0}
    - target: {fileID: 7859611266836187916, guid: 9fc01e6854497084fa2288ca89bc8361,
        type: 3}
      propertyPath: m_AnchorMin.y
      value: 0
      objectReference: {fileID: 0}
    - target: {fileID: 7859611266836187916, guid: 9fc01e6854497084fa2288ca89bc8361,
        type: 3}
      propertyPath: m_AnchorMax.x
      value: 0
      objectReference: {fileID: 0}
    - target: {fileID: 7859611266836187916, guid: 9fc01e6854497084fa2288ca89bc8361,
        type: 3}
      propertyPath: m_AnchorMax.y
      value: 0
      objectReference: {fileID: 0}
    - target: {fileID: 7859611266836187916, guid: 9fc01e6854497084fa2288ca89bc8361,
        type: 3}
      propertyPath: m_Pivot.x
      value: 0.5
      objectReference: {fileID: 0}
    - target: {fileID: 7859611266836187916, guid: 9fc01e6854497084fa2288ca89bc8361,
        type: 3}
      propertyPath: m_Pivot.y
      value: 0.5
      objectReference: {fileID: 0}
    - target: {fileID: 7859611266683291212, guid: 9fc01e6854497084fa2288ca89bc8361,
        type: 3}
      propertyPath: m_AnchorMin.y
      value: 0
      objectReference: {fileID: 0}
    - target: {fileID: 7859611266683291212, guid: 9fc01e6854497084fa2288ca89bc8361,
        type: 3}
      propertyPath: m_AnchorMax.y
      value: 0
      objectReference: {fileID: 0}
    - target: {fileID: 7859611266683291212, guid: 9fc01e6854497084fa2288ca89bc8361,
        type: 3}
      propertyPath: m_AnchoredPosition.y
      value: 0
      objectReference: {fileID: 0}
    - target: {fileID: 7859611266683291212, guid: 9fc01e6854497084fa2288ca89bc8361,
        type: 3}
      propertyPath: m_SizeDelta.y
      value: 0
      objectReference: {fileID: 0}
    - target: {fileID: 7859611266683291212, guid: 9fc01e6854497084fa2288ca89bc8361,
        type: 3}
      propertyPath: m_AnchoredPosition.x
      value: 0
      objectReference: {fileID: 0}
    - target: {fileID: 7859611266683291212, guid: 9fc01e6854497084fa2288ca89bc8361,
        type: 3}
      propertyPath: m_SizeDelta.x
      value: 0
      objectReference: {fileID: 0}
    - target: {fileID: 8293702738125559109, guid: 9fc01e6854497084fa2288ca89bc8361,
        type: 3}
      propertyPath: m_AnchoredPosition.x
      value: 325
      objectReference: {fileID: 0}
    - target: {fileID: 8293702738125559109, guid: 9fc01e6854497084fa2288ca89bc8361,
        type: 3}
      propertyPath: m_SizeDelta.x
      value: 650
      objectReference: {fileID: 0}
    - target: {fileID: 8293702738125559109, guid: 9fc01e6854497084fa2288ca89bc8361,
        type: 3}
      propertyPath: m_AnchorMin.y
      value: 0
      objectReference: {fileID: 0}
    - target: {fileID: 8293702738125559109, guid: 9fc01e6854497084fa2288ca89bc8361,
        type: 3}
      propertyPath: m_AnchorMax.y
      value: 0
      objectReference: {fileID: 0}
    - target: {fileID: 8293702738125559109, guid: 9fc01e6854497084fa2288ca89bc8361,
        type: 3}
      propertyPath: m_AnchoredPosition.y
      value: 0
      objectReference: {fileID: 0}
    - target: {fileID: 8293702738125559109, guid: 9fc01e6854497084fa2288ca89bc8361,
        type: 3}
      propertyPath: m_SizeDelta.y
      value: 0
      objectReference: {fileID: 0}
    - target: {fileID: 5988826658420819916, guid: 9fc01e6854497084fa2288ca89bc8361,
        type: 3}
      propertyPath: m_AnchorMin.y
      value: 0
      objectReference: {fileID: 0}
    - target: {fileID: 5988826658420819916, guid: 9fc01e6854497084fa2288ca89bc8361,
        type: 3}
      propertyPath: m_AnchorMax.y
      value: 0
      objectReference: {fileID: 0}
    - target: {fileID: 5988826658420819916, guid: 9fc01e6854497084fa2288ca89bc8361,
        type: 3}
      propertyPath: m_AnchoredPosition.x
      value: 0
      objectReference: {fileID: 0}
    - target: {fileID: 5988826658420819916, guid: 9fc01e6854497084fa2288ca89bc8361,
        type: 3}
      propertyPath: m_AnchoredPosition.y
      value: 0
      objectReference: {fileID: 0}
    - target: {fileID: 5988826658420819916, guid: 9fc01e6854497084fa2288ca89bc8361,
        type: 3}
      propertyPath: m_SizeDelta.x
      value: 0
      objectReference: {fileID: 0}
    - target: {fileID: 5988826658420819916, guid: 9fc01e6854497084fa2288ca89bc8361,
        type: 3}
      propertyPath: m_SizeDelta.y
      value: 0
      objectReference: {fileID: 0}
    - target: {fileID: 2469757124349763532, guid: 9fc01e6854497084fa2288ca89bc8361,
        type: 3}
      propertyPath: m_AnchorMin.y
      value: 0
      objectReference: {fileID: 0}
    - target: {fileID: 2469757124349763532, guid: 9fc01e6854497084fa2288ca89bc8361,
        type: 3}
      propertyPath: m_AnchorMax.y
      value: 0
      objectReference: {fileID: 0}
    - target: {fileID: 2469757124349763532, guid: 9fc01e6854497084fa2288ca89bc8361,
        type: 3}
      propertyPath: m_AnchoredPosition.x
      value: 0
      objectReference: {fileID: 0}
    - target: {fileID: 2469757124349763532, guid: 9fc01e6854497084fa2288ca89bc8361,
        type: 3}
      propertyPath: m_AnchoredPosition.y
      value: 0
      objectReference: {fileID: 0}
    - target: {fileID: 2469757124349763532, guid: 9fc01e6854497084fa2288ca89bc8361,
        type: 3}
      propertyPath: m_SizeDelta.x
      value: 0
      objectReference: {fileID: 0}
    - target: {fileID: 2469757124349763532, guid: 9fc01e6854497084fa2288ca89bc8361,
        type: 3}
      propertyPath: m_SizeDelta.y
      value: 0
      objectReference: {fileID: 0}
    - target: {fileID: 4506553238510753805, guid: 9fc01e6854497084fa2288ca89bc8361,
        type: 3}
      propertyPath: m_AnchoredPosition.x
      value: 325
      objectReference: {fileID: 0}
    - target: {fileID: 4506553238510753805, guid: 9fc01e6854497084fa2288ca89bc8361,
        type: 3}
      propertyPath: m_AnchorMin.y
      value: 0
      objectReference: {fileID: 0}
    - target: {fileID: 4506553238510753805, guid: 9fc01e6854497084fa2288ca89bc8361,
        type: 3}
      propertyPath: m_AnchorMax.y
      value: 0
      objectReference: {fileID: 0}
    - target: {fileID: 4506553238510753805, guid: 9fc01e6854497084fa2288ca89bc8361,
        type: 3}
      propertyPath: m_SizeDelta.x
      value: 0
      objectReference: {fileID: 0}
    - target: {fileID: 4506553238510753805, guid: 9fc01e6854497084fa2288ca89bc8361,
        type: 3}
      propertyPath: m_AnchoredPosition.y
      value: 0
      objectReference: {fileID: 0}
    - target: {fileID: 4506553238510753805, guid: 9fc01e6854497084fa2288ca89bc8361,
        type: 3}
      propertyPath: m_SizeDelta.y
      value: 0
      objectReference: {fileID: 0}
    - target: {fileID: 9061147574274903397, guid: 9fc01e6854497084fa2288ca89bc8361,
        type: 3}
      propertyPath: m_AnchorMin.y
      value: 0
      objectReference: {fileID: 0}
    - target: {fileID: 9061147574274903397, guid: 9fc01e6854497084fa2288ca89bc8361,
        type: 3}
      propertyPath: m_AnchorMax.y
      value: 0
      objectReference: {fileID: 0}
    - target: {fileID: 9061147574274903397, guid: 9fc01e6854497084fa2288ca89bc8361,
        type: 3}
      propertyPath: m_AnchoredPosition.x
      value: 0
      objectReference: {fileID: 0}
    - target: {fileID: 9061147574274903397, guid: 9fc01e6854497084fa2288ca89bc8361,
        type: 3}
      propertyPath: m_SizeDelta.x
      value: 0
      objectReference: {fileID: 0}
    - target: {fileID: 9061147574274903397, guid: 9fc01e6854497084fa2288ca89bc8361,
        type: 3}
      propertyPath: m_AnchoredPosition.y
      value: 0
      objectReference: {fileID: 0}
    - target: {fileID: 9061147574274903397, guid: 9fc01e6854497084fa2288ca89bc8361,
        type: 3}
      propertyPath: m_SizeDelta.y
      value: 0
      objectReference: {fileID: 0}
    - target: {fileID: 3105351925894798823, guid: 9fc01e6854497084fa2288ca89bc8361,
        type: 3}
      propertyPath: m_AnchorMin.y
      value: 0
      objectReference: {fileID: 0}
    - target: {fileID: 3105351925894798823, guid: 9fc01e6854497084fa2288ca89bc8361,
        type: 3}
      propertyPath: m_AnchorMax.y
      value: 0
      objectReference: {fileID: 0}
    - target: {fileID: 3105351925894798823, guid: 9fc01e6854497084fa2288ca89bc8361,
        type: 3}
      propertyPath: m_AnchoredPosition.x
      value: 0
      objectReference: {fileID: 0}
    - target: {fileID: 3105351925894798823, guid: 9fc01e6854497084fa2288ca89bc8361,
        type: 3}
      propertyPath: m_AnchoredPosition.y
      value: 0
      objectReference: {fileID: 0}
    - target: {fileID: 3105351925894798823, guid: 9fc01e6854497084fa2288ca89bc8361,
        type: 3}
      propertyPath: m_SizeDelta.x
      value: 0
      objectReference: {fileID: 0}
    - target: {fileID: 3105351925894798823, guid: 9fc01e6854497084fa2288ca89bc8361,
        type: 3}
      propertyPath: m_SizeDelta.y
      value: 0
      objectReference: {fileID: 0}
    - target: {fileID: 6028772121333853889, guid: 9fc01e6854497084fa2288ca89bc8361,
        type: 3}
      propertyPath: m_AnchorMin.y
      value: 0
      objectReference: {fileID: 0}
    - target: {fileID: 6028772121333853889, guid: 9fc01e6854497084fa2288ca89bc8361,
        type: 3}
      propertyPath: m_AnchorMax.y
      value: 0
      objectReference: {fileID: 0}
    - target: {fileID: 6028772121333853889, guid: 9fc01e6854497084fa2288ca89bc8361,
        type: 3}
      propertyPath: m_AnchoredPosition.y
      value: 0
      objectReference: {fileID: 0}
    - target: {fileID: 3925482920977741657, guid: 9fc01e6854497084fa2288ca89bc8361,
        type: 3}
      propertyPath: m_AnchorMin.y
      value: 0
      objectReference: {fileID: 0}
    - target: {fileID: 3925482920977741657, guid: 9fc01e6854497084fa2288ca89bc8361,
        type: 3}
      propertyPath: m_AnchorMax.y
      value: 0
      objectReference: {fileID: 0}
    - target: {fileID: 3925482920977741657, guid: 9fc01e6854497084fa2288ca89bc8361,
        type: 3}
      propertyPath: m_AnchoredPosition.x
      value: 0
      objectReference: {fileID: 0}
    - target: {fileID: 3925482920977741657, guid: 9fc01e6854497084fa2288ca89bc8361,
        type: 3}
      propertyPath: m_AnchoredPosition.y
      value: 0
      objectReference: {fileID: 0}
    - target: {fileID: 3925482920977741657, guid: 9fc01e6854497084fa2288ca89bc8361,
        type: 3}
      propertyPath: m_SizeDelta.x
      value: 0
      objectReference: {fileID: 0}
    - target: {fileID: 3925482920977741657, guid: 9fc01e6854497084fa2288ca89bc8361,
        type: 3}
      propertyPath: m_SizeDelta.y
      value: 0
      objectReference: {fileID: 0}
    m_RemovedComponents: []
  m_SourcePrefab: {fileID: 100100000, guid: 9fc01e6854497084fa2288ca89bc8361, type: 3}
--- !u!1 &5465420280609839317 stripped
GameObject:
  m_CorrespondingSourceObject: {fileID: 7859611266683291213, guid: 9fc01e6854497084fa2288ca89bc8361,
    type: 3}
  m_PrefabInstance: {fileID: 2795574317917134488}
  m_PrefabAsset: {fileID: 0}
