%YAML 1.1
%TAG !u! tag:unity3d.com,2011:
--- !u!114 &1
MonoBehaviour:
  m_ObjectHideFlags: 0
  m_CorrespondingSourceObject: {fileID: 0}
  m_PrefabInstance: {fileID: 0}
  m_PrefabAsset: {fileID: 0}
  m_GameObject: {fileID: 0}
  m_Enabled: 1
  m_EditorHideFlags: 0
  m_Script: {fileID: 11500000, guid: fc24b77901c20704995bbbd492d00cc1, type: 3}
  m_Name: 
  m_EditorClassIdentifier: 
  issuesFinderSettings:
    filtersTabIndex: 0
    tabState:
      selection: 01010101010101010101010101010101010101010101010101010101010101010101
      compaction: 00000101010101010101010101010101010101010101010101010101010101010101
      scrollPosition: {x: 0, y: 0}
    sortingType: 2
    sortingDirection: 0
    scanGameObjectsFoldout: 0
    gameObjectsFoldout: 1
    commonFoldout: 0
    neatnessFoldout: 0
    projectSettingsFoldout: 1
  referencesFinder:
    showAssetsWithoutReferences: 0
    selectedFindClearsProjectResults: 0
    clearHierarchyResults: 0
    fullProjectScanWarningShown: 0
    projectTabSearchString: 
    sceneTabSearchString: 
    projectReferencesTreeViewState:
      scrollPos: {x: 0, y: 0}
      m_SelectedIDs: 01000000
      m_LastClickedID: 1
      m_ExpandedIDs: 0000000001000000
      m_RenameOverlay:
        m_UserAcceptedRename: 0
        m_Name: 
        m_OriginalName: 
        m_EditFieldRect:
          serializedVersion: 2
          x: 0
          y: 0
          width: 0
          height: 0
        m_UserData: 0
        m_IsWaitingForDelay: 0
        m_IsRenaming: 0
        m_OriginalEventType: 11
        m_IsRenamingFilename: 0
        m_ClientGUIView: {fileID: 0}
      m_SearchString: 
    projectReferencesTreeHeaderState:
      m_Columns:
      - width: 785
        sortedAscending: 1
      - width: 100
        sortedAscending: 1
      - width: 100
        sortedAscending: 0
      - width: 33
        sortedAscending: 0
      m_VisibleColumns: 00000000010000000200000003000000
      m_SortedColumns: 0300000000000000
    hierarchyReferencesTreeViewState:
      scrollPos: {x: 0, y: 0}
      m_SelectedIDs: 
      m_LastClickedID: 0
      m_ExpandedIDs: 
      m_RenameOverlay:
        m_UserAcceptedRename: 0
        m_Name: 
        m_OriginalName: 
        m_EditFieldRect:
          serializedVersion: 2
          x: 0
          y: 0
          width: 0
          height: 0
        m_UserData: 0
        m_IsWaitingForDelay: 0
        m_IsRenaming: 0
        m_OriginalEventType: 11
        m_IsRenamingFilename: 0
        m_ClientGUIView: {fileID: 0}
      m_SearchString: 
    sceneReferencesTreeHeaderState:
      m_Columns: []
      m_VisibleColumns: 
      m_SortedColumns: 
    splitterState: '{"ID":35538,"splitterInitialOffset":0.0,"currentActiveSplitter":-1,"realSizes":[411.0,206.0],"relativeSizes":[0.6666666865348816,0.3333333134651184],"minSizes":[90.0,47.0],"maxSizes":[0.0,0.0],"lastTotalSize":617.0,"splitSize":6.0,"xOffset":0.0,"m_Version":1,"oldRealSizes":[],"oldMinSizes":[],"oldMaxSizes":[],"oldSplitSize":0}'
    selectedTab: 0
  projectCleanerSettings:
    filtersTabIndex: 1
    firstTime: 0
    trashBinWarningShown: 0
    deletionPromptShown: 1
    tabState:
      selection: 010101010101010101010101
      compaction: 010101010101010101010101
      scrollPosition: {x: 0, y: 0}
    sortingType: 1
    sortingDirection: 0
  referencesFinderSettings:
    showAssetsWithoutReferences: 0
    selectedFindClearsProjectResults: 0
    clearHierarchyResults: 0
    fullProjectScanWarningShown: 0
    projectTabSearchString: 
    sceneTabSearchString: 
    projectReferencesTreeViewState:
      scrollPos: {x: 0, y: 0}
      m_SelectedIDs: 
      m_LastClickedID: 0
      m_ExpandedIDs: 
      m_RenameOverlay:
        m_UserAcceptedRename: 0
        m_Name: 
        m_OriginalName: 
        m_EditFieldRect:
          serializedVersion: 2
          x: 0
          y: 0
          width: 0
          height: 0
        m_UserData: 0
        m_IsWaitingForDelay: 0
        m_IsRenaming: 0
        m_OriginalEventType: 11
        m_IsRenamingFilename: 0
        m_ClientGUIView: {fileID: 0}
      m_SearchString: 
    projectReferencesTreeHeaderState:
      m_Columns: []
      m_VisibleColumns: 
      m_SortedColumns: 
    hierarchyReferencesTreeViewState:
      scrollPos: {x: 0, y: 0}
      m_SelectedIDs: 
      m_LastClickedID: 0
      m_ExpandedIDs: 
      m_RenameOverlay:
        m_UserAcceptedRename: 0
        m_Name: 
        m_OriginalName: 
        m_EditFieldRect:
          serializedVersion: 2
          x: 0
          y: 0
          width: 0
          height: 0
        m_UserData: 0
        m_IsWaitingForDelay: 0
        m_IsRenaming: 0
        m_OriginalEventType: 11
        m_IsRenamingFilename: 0
        m_ClientGUIView: {fileID: 0}
      m_SearchString: 
    sceneReferencesTreeHeaderState:
      m_Columns: []
      m_VisibleColumns: 
      m_SortedColumns: 
    splitterState: 
    selectedTab: 0
  selectedTab: 2
  scroll: {x: 0, y: 0}
  version: 1.6.5
